Data Wrangling with dplyr - Part 3 - Aravind's Blog | R | Economics | Finance
…
library(dplyr)
library(readr)
options(tibble.width = Inf)

Case Study

Let us look at a case study (e-commerce data) and see how we can use dplyr helper functions to answer questions we have about and to modify/transform the underlying data set. You can download the data from here or import it directly using read_csv() from the readr package.

Data

ecom <- readr::read_csv('https://raw.githubusercontent.com/rsquaredacademy/datasets/master/web.csv')
ecom

## # A tibble: 1,000 x 11
##       id referrer device bouncers n_visit n_pages duration        country purchase order_items order_value
##    <int>    <chr>  <chr>    <chr>   <int>   <dbl>    <dbl>          <chr>    <chr>       <dbl>       <dbl>
##  1     1   google laptop     true      10       1      693 Czech Republic    false           0           0
##  2     2    yahoo tablet     true       9       1      459          Yemen    false           0           0
##  3     3   direct laptop     true       0       1      996         Brazil    false           0           0
##  4     4     bing tablet    false       3      18      468          China     true           6         434
##  5     5    yahoo mobile     true       9       1      955         Poland    false           0           0
##  6     6    yahoo laptop    false       5       5      135   South Africa    false           0           0
##  7     7    yahoo mobile     true      10       1       75     Bangladesh    false           0           0
##  8     8   direct mobile     true      10       1      908      Indonesia    false           0           0
##  9     9     bing mobile    false       3      19      209    Netherlands    false           0           0
## 10    10   google mobile     true       6       1      208 Czech Republic    false           0           0
## # ... with 990 more rows
…
## # A tibble: 3 x 1
##   device
##    <chr>
## 1 laptop
## 2 tablet
## 3 mobile

Rename Columns

ecom %>%
  rename(time_on_site = duration)

## # A tibble: 1,000 x 11
##       id referrer device bouncers n_visit n_pages time_on_site        country purchase order_items order_value
##    <int>    <chr>  <chr>    <chr>   <int>   <dbl>        <dbl>          <chr>    <chr>       <dbl>       <dbl>
##  1     1   google laptop     true      10       1          693 Czech Republic    false           0           0
##  2     2    yahoo tablet     true       9       1          459          Yemen    false           0           0
##  3     3   direct laptop     true       0       1          996         Brazil    false           0           0
##  4     4     bing tablet    false       3      18          468          China     true           6         434
##  5     5    yahoo mobile     true       9       1          955         Poland    false           0           0
##  6     6    yahoo laptop    false       5       5          135   South Africa    false           0           0
##  7     7    yahoo mobile     true      10       1           75     Bangladesh    false           0           0
##  8     8   direct mobile     true      10       1          908      Indonesia    false           0           0
##  9     9     bing mobile    false       3      19          209    Netherlands    false           0           0
## 10    10   google mobile     true       6       1          208 Czech Republic    false           0           0
## # ... with 990 more rows

Sampling Data

ecom %>%
  sample_n(700)

## # A tibble: 700 x 11
##       id referrer device bouncers n_visit n_pages duration   country purchase order_items order_value
##    <int>    <chr>  <chr>    <chr>   <int>   <dbl>    <dbl>     <chr>    <chr>       <dbl>       <dbl>
##  1   880   direct mobile     true       2       1      357      Niue    false           0           0
##  2   178   direct mobile    false       9      15      210 Indonesia    false           0           0
##  3   435   direct mobile    false       5      15      330 Indonesia    false           0           0
##  4   592   google mobile    false       8      11      198  Portugal    false           0           0
##  5   861    yahoo tablet     true       1       1      339 Indonesia    false           0           0
##  6   124   social mobile     true       0       1      345 Indonesia    false           0           0
##  7   730   social mobile     true       5       1      155     Libya    false           0           0
##  8   129   google tablet     true       8       1      249    Brazil    false           0           0
##  9   893    yahoo laptop    false       2       9      162  Thailand    false           0           0
## 10   364     bing laptop     true       3       1      369     Kenya    false           0           0
## # ... with 690 more rows

ecom %>%
  group_by(referrer) %>%
  sample_n(100)

## # A tibble: 500 x 11
## # Groups:   referrer [5]
##       id referrer device bouncers n_visit n_pages duration       country purchase order_items order_value
##    <int>    <chr>  <chr>    <chr>   <int>   <dbl>    <dbl>         <chr>    <chr>       <dbl>       <dbl>
##  1   624     bing laptop    false       8       3       57      Portugal    false           0           0
##  2   580     bing laptop     true       7       1      362 United States    false           0           0
##  3   888     bing tablet    false      10      17      442         China    false           0           0
##  4   655     bing mobile     true       6       1      604       Nigeria    false           0           0
##  5   722     bing mobile     true      10       1      847         Yemen    false           0           0
##  6   539     bing mobile    false      10      20      560     Nicaragua    false           0           0
##  7   681     bing mobile     true       8       1      195         China    false           0           0
##  8   787     bing mobile     true       9       1      638  South Africa    false           0           0
##  9    50     bing tablet     true       5       1      831          Iran    false           0           0
## 10   379     bing tablet     true       2       1       24         China    false           0           0
## # ... with 490 more rows

ecom %>%
  sample_frac(size = 0.7)

## # A tibble: 700 x 11
##       id referrer device bouncers n_visit n_pages duration               country purchase order_items order_value
##    <int>    <chr>  <chr>    <chr>   <int>   <dbl>    <dbl>                 <chr>    <chr>       <dbl>       <dbl>
##  1   138    yahoo tablet     true       6       1      297                 China    false           0           0
##  2   936   google mobile    false       1      20      320 Palestinian Territory    false           0           0
##  3   521   direct laptop    false       4       5       65                Russia    false           4         153
##  4   923   google mobile    false       5      15      150                 China    false           0           0
##  5   739   social mobile     true       9       1      729                 China    false           0           0
##  6   742   google mobile     true       2       1      337                 China    false           0           0
##  7   699   social mobile     true       8       1      619               Germany    false           0           0
##  8   826   direct mobile     true       7       1      764               Tunisia    false           0           0
##  9   546    yahoo mobile    false      10       6       90                Greece    false           1        1648
## 10   352   direct tablet    false       2      17      391               Ukraine     true           3        2636
## # ... with 690 more rows

ecom %>%
  group_by(referrer) %>%
  sample_frac(0.3)

## # A tibble: 299 x 11
## # Groups:   referrer [5]
##       id referrer device bouncers n_visit n_pages duration       country purchase order_items order_value
##    <int>    <chr>  <chr>    <chr>   <int>   <dbl>    <dbl>         <chr>    <chr>       <dbl>       <dbl>
##  1   343     bing tablet     true       4       1      684         China    false           0           0
##  2   911     bing tablet    false       5       8      216         Japan    false           8        1722
##  3   400     bing mobile    false       9       7      147        Poland    false           2         139
##  4   181     bing mobile     true       9       1      650        Poland    false           0           0
##  5   257     bing laptop    false       5      13      286 United States    false           0           0
##  6   852     bing tablet     true       0       1      845   Philippines    false           0           0
##  7   743     bing tablet    false       1      18      180     Argentina    false           0           0
##  8   921     bing tablet    false       1      20      280      Thailand     true           5        2857
##  9    17     bing tablet    false       5      16      368          Peru     true           6        1049
## 10   406     bing mobile    false      10      14      140          Peru    false           0           0
## # ... with 289 more rows
…
