Hacking strings with stringr - Aravind's Blog | R | Economics | Finance
…
extract http protocol from url

extract domain name from url

extract extension from url

extract file type from url

Data

mockstring <- readr::read_csv('https://raw.githubusercontent.com/rsquaredacademy/datasets/master/mock_strings.csv')
mockstring

## # A tibble: 1,000 x 16
##       id                bundle_id    app_name
##    <int>                    <chr>       <chr>
##  1     1       com.netlog.Cardify   Ronstring
##  2     2      com.devhub.Aerified     Fintone
##  3     3           int.who.Zathin Ventosanzap
##  4     4           jp.ne.goo.Rank     Redhold
##  5     5  au.gov.oaic.Stringtough    Tres-Zap
##  6     6           com.go.Pannier    Tampflex
##  7     7            com.webs.Stim     Bitchip
##  8     8        com.sogou.Bitchip      Namfix
##  9     9          com.amazon.Viva    Wrapsafe
## 10    10 com.theguardian.Domainer     Pannier
## # ... with 990 more rows, and 13 more variables: image_url <chr>,
## #   phrase <chr>, domain <chr>, imageurl <chr>, email <chr>,
## #   filename <chr>, denominatio <chr>, strings <chr>, phone <chr>,
## #   slogans <chr>, address <chr>, url <chr>, useragent <chr>
…
