ggplot2: Bar Plots - Aravind's Blog | R | Economics | Finance
…
We will use the following libraries in this post:

readr

ggplot2

All the data sets used in this post can be found here and code can be downloaded from here.

Data

ecom <- readr::read_csv('https://raw.githubusercontent.com/rsquaredacademy/datasets/master/web.csv')
ecom

## # A tibble: 1,000 x 11
##       id referrer device bouncers n_visit n_pages duration country       
##    <int> <chr>    <chr>  <chr>      <int>   <dbl>    <dbl> <chr>         
##  1     1 google   laptop true          10    1.00    693   Czech Republic
##  2     2 yahoo    tablet true           9    1.00    459   Yemen         
##  3     3 direct   laptop true           0    1.00    996   Brazil        
##  4     4 bing     tablet false          3   18.0     468   China         
##  5     5 yahoo    mobile true           9    1.00    955   Poland        
##  6     6 yahoo    laptop false          5    5.00    135   South Africa  
##  7     7 yahoo    mobile true          10    1.00     75.0 Bangladesh    
##  8     8 direct   mobile true          10    1.00    908   Indonesia     
##  9     9 bing     mobile false          3   19.0     209   Netherlands   
## 10    10 google   mobile true           6    1.00    208   Czech Republic
## # ... with 990 more rows, and 3 more variables: purchase <chr>,
## #   order_items <dbl>, order_value <dbl>
…
