…
extract http protocol from url

extract domain name from url

extract extension from url

extract file type from url

Data

mockstring <- readr::read_csv('https://raw.githubusercontent.com/rsquaredacademy/datasets/master/mock_strings.csv')
mockstring

## # A tibble: 1,000 x 16
##       id bundle_id  app_name  image_url    phrase   domain imageurl  email
##    <int> <chr>      <chr>     <chr>        <chr>    <chr>  <chr>     <chr>
##  1     1 com.netlo~ Ronstring https://rob~ Univers~ addto~ http://d~ mnew~
##  2     2 com.devhu~ Fintone   https://rob~ Decentr~ gmpg.~ http://d~ mdan~
##  3     3 int.who.Z~ Ventosan~ https://rob~ De-engi~ samsu~ http://d~ hgir~
##  4     4 jp.ne.goo~ Redhold   https://rob~ Optiona~ spoti~ http://d~ pmcm~
##  5     5 au.gov.oa~ Tres-Zap  https://rob~ Profit-~ wunde~ http://d~ dris~
##  6     6 com.go.Pa~ Tampflex  https://rob~ User-ce~ alexa~ http://d~ cphl~
##  7     7 com.webs.~ Bitchip   https://rob~ Grass-r~ googl~ http://d~ kdod~
##  8     8 com.sogou~ Namfix    https://rob~ Central~ ed.gov http://d~ vhou~
##  9     9 com.amazo~ Wrapsafe  https://rob~ Custome~ jigsy~ http://d~ rdik~
## 10    10 com.thegu~ Pannier   https://rob~ Object-~ jugem~ http://d~ tdud~
## # ... with 990 more rows, and 8 more variables: filename <chr>,
## #   denominatio <chr>, strings <chr>, phone <chr>, slogans <chr>,
## #   address <chr>, url <chr>, useragent <chr>
…
