…
The data sets can be downloaded from here and the codes from here.

library(dplyr)
library(readr)

Case Study

Let us look at a case study (e-commerce data) and see how we can use dplyr helper functions to answer questions we have about and to modify/transform the underlying data set.

Data

ecom <- readr::read_csv('https://raw.githubusercontent.com/rsquaredacademy/datasets/master/web.csv')
ecom

## # A tibble: 1,000 x 11
##       id referrer device bouncers n_visit n_pages duration country       
##    <int> <chr>    <chr>  <chr>      <int>   <dbl>    <dbl> <chr>         
##  1     1 google   laptop true          10    1.00    693   Czech Republic
##  2     2 yahoo    tablet true           9    1.00    459   Yemen         
##  3     3 direct   laptop true           0    1.00    996   Brazil        
##  4     4 bing     tablet false          3   18.0     468   China         
##  5     5 yahoo    mobile true           9    1.00    955   Poland        
##  6     6 yahoo    laptop false          5    5.00    135   South Africa  
##  7     7 yahoo    mobile true          10    1.00     75.0 Bangladesh    
##  8     8 direct   mobile true          10    1.00    908   Indonesia     
##  9     9 bing     mobile false          3   19.0     209   Netherlands   
## 10    10 google   mobile true           6    1.00    208   Czech Republic
## # ... with 990 more rows, and 3 more variables: purchase <chr>,
## #   order_items <dbl>, order_value <dbl>
…
Sampling Data

dplyr offers sampling functions which allow us to specify either the number or percentage of observations. sample_n() allows sampling a specific number of observations.

ecom %>%
  sample_n(700)

## # A tibble: 700 x 11
##       id referrer device bouncers n_visit n_pages duration country        
##    <int> <chr>    <chr>  <chr>      <int>   <dbl>    <dbl> <chr>          
##  1   464 google   tablet true           8    1.00      414 Yemen          
##  2    55 direct   mobile true           0    1.00      566 United States  
##  3   796 google   tablet false          3    8.00      112 China          
##  4   839 social   laptop false          8   15.0       240 Dominican Repu~
##  5   881 google   mobile true           7    1.00      301 Portugal       
##  6   229 google   mobile true          10    1.00      948 Greece         
##  7   656 bing     laptop false          0   13.0       390 Philippines    
##  8   903 google   laptop false          4    9.00      117 Iran           
##  9   191 bing     mobile true           4    1.00      366 New Zealand    
## 10   507 social   mobile false          8    6.00      168 France         
## # ... with 690 more rows, and 3 more variables: purchase <chr>,
## #   order_items <dbl>, order_value <dbl>

We can combine the sampling functions with other dplyr functions as shown below where we sample observation after grouping them according to the source of traffic.

ecom %>%
  group_by(referrer) %>%
  sample_n(100)

## # A tibble: 500 x 11
## # Groups:   referrer [5]
##       id referrer device bouncers n_visit n_pages duration country    
##    <int> <chr>    <chr>  <chr>      <int>   <dbl>    <dbl> <chr>      
##  1   303 bing     mobile true           4    1.00    979   Madagascar 
##  2   749 bing     laptop false          0   17.0     272   Indonesia  
##  3   446 bing     laptop false          0    1.00     21.0 Indonesia  
##  4    47 bing     mobile true           6    1.00    843   Sweden     
##  5   574 bing     mobile true          10    1.00     98.0 Poland     
##  6   325 bing     tablet true           9    1.00    281   Poland     
##  7   740 bing     mobile false          9    2.00     24.0 Indonesia  
##  8   361 bing     laptop true           4    1.00    913   Philippines
##  9   230 bing     tablet false          8    6.00    180   Costa Rica 
## 10   290 bing     mobile false          4   18.0     414   Russia     
## # ... with 490 more rows, and 3 more variables: purchase <chr>,
## #   order_items <dbl>, order_value <dbl>

sample_frac() allows a specific percentage of observations.

ecom %>%
  sample_frac(size = 0.7)

## # A tibble: 700 x 11
##       id referrer device bouncers n_visit n_pages duration country  
##    <int> <chr>    <chr>  <chr>      <int>   <dbl>    <dbl> <chr>    
##  1   304 social   laptop true           7    1.00    185   Venezuela
##  2   439 google   tablet false          0   13.0     156   Chile    
##  3   155 google   mobile false          8   10.0     240   Brazil   
##  4   695 direct   mobile true           9    1.00    291   Indonesia
##  5   425 yahoo    laptop false          2    7.00    105   Cyprus   
##  6   381 yahoo    laptop false          7   20.0     340   China    
##  7    52 bing     mobile true           7    1.00    569   Brazil   
##  8   113 yahoo    tablet false          7   16.0     224   Sri Lanka
##  9   694 direct   laptop true           3    1.00    700   Sweden   
## 10   574 bing     mobile true          10    1.00     98.0 Poland   
## # ... with 690 more rows, and 3 more variables: purchase <chr>,
## #   order_items <dbl>, order_value <dbl>
…
Case When

case_when() is an alternative to if else. It allows us to lay down the conditions clearly and makes the code more readable. In the below example, we create a new column repeat_visit from n_visit (the number of previous visits).

ecom %>%
  mutate(
    repeat_visit = case_when(
      n_visit > 0 ~ TRUE,
      TRUE ~ FALSE
    )
  ) %>%
  select(n_visit, repeat_visit) 

## # A tibble: 1,000 x 2
##    n_visit repeat_visit
##      <int> <lgl>       
##  1      10 T           
##  2       9 T           
##  3       0 F           
##  4       3 T           
##  5       9 T           
##  6       5 T           
##  7      10 T           
##  8      10 T           
##  9       3 T           
## 10       6 T           
## # ... with 990 more rows
