Working with Dates in R - Aravind's Blog | R | Economics | Finance
…
check if due year is a leap year

check when due day in february is 29, whether it is a leap year

how many invoices were settled within due date

how many invoices are due in each quarter

what is the average duration between invoice date and payment date

Data

transact <- read_csv('https://raw.githubusercontent.com/rsquaredacademy/datasets/master/transact.csv')

## # A tibble: 2,466 x 3
##       Invoice        Due    Payment
##        <date>     <date>     <date>
##  1 2013-01-02 2013-02-01 2013-01-15
##  2 2013-01-26 2013-02-25 2013-03-03
##  3 2013-07-03 2013-08-02 2013-07-08
##  4 2013-02-10 2013-03-12 2013-03-17
##  5 2012-10-25 2012-11-24 2012-11-28
##  6 2012-01-27 2012-02-26 2012-02-22
##  7 2013-08-13 2013-09-12 2013-09-09
##  8 2012-12-16 2013-01-15 2013-01-12
##  9 2012-05-14 2012-06-13 2012-07-01
## 10 2013-07-01 2013-07-31 2013-07-26
## # ... with 2,456 more rows
…
## [1] 3

year(this_day)

## [1] 2017

transact %>%
  mutate(
    due_day = day(Due),
    due_month = month(Due),
    due_year = year(Due)
  )

## # A tibble: 2,466 x 6
##       Invoice        Due    Payment due_day due_month due_year
##        <date>     <date>     <date>   <int>     <dbl>    <dbl>
##  1 2013-01-02 2013-02-01 2013-01-15       1         2     2013
##  2 2013-01-26 2013-02-25 2013-03-03      25         2     2013
##  3 2013-07-03 2013-08-02 2013-07-08       2         8     2013
##  4 2013-02-10 2013-03-12 2013-03-17      12         3     2013
##  5 2012-10-25 2012-11-24 2012-11-28      24        11     2012
##  6 2012-01-27 2012-02-26 2012-02-22      26         2     2012
##  7 2013-08-13 2013-09-12 2013-09-09      12         9     2013
##  8 2012-12-16 2013-01-15 2013-01-12      15         1     2013
##  9 2012-05-14 2012-06-13 2012-07-01      13         6     2012
## 10 2013-07-01 2013-07-31 2013-07-26      31         7     2013
## # ... with 2,456 more rows
Compute days to settle invoice

course_start <- as_date('2017-04-12')
course_end <- as_date('2017-04-21')
course_duration <- course_end - course_start
course_duration

## Time difference of 9 days

transact %>%
  mutate(
    days_to_pay = Payment - Invoice
  )

## # A tibble: 2,466 x 4
##       Invoice        Due    Payment days_to_pay
##        <date>     <date>     <date>      <time>
##  1 2013-01-02 2013-02-01 2013-01-15     13 days
##  2 2013-01-26 2013-02-25 2013-03-03     36 days
##  3 2013-07-03 2013-08-02 2013-07-08      5 days
##  4 2013-02-10 2013-03-12 2013-03-17     35 days
##  5 2012-10-25 2012-11-24 2012-11-28     34 days
##  6 2012-01-27 2012-02-26 2012-02-22     26 days
##  7 2013-08-13 2013-09-12 2013-09-09     27 days
##  8 2012-12-16 2013-01-15 2013-01-12     27 days
##  9 2012-05-14 2012-06-13 2012-07-01     48 days
## 10 2013-07-01 2013-07-31 2013-07-26     25 days
## # ... with 2,456 more rows

compute days over due

transact %>%
  mutate(
    delay = Payment - Due
  )

## # A tibble: 2,466 x 4
##       Invoice        Due    Payment    delay
##        <date>     <date>     <date>   <time>
##  1 2013-01-02 2013-02-01 2013-01-15 -17 days
##  2 2013-01-26 2013-02-25 2013-03-03   6 days
##  3 2013-07-03 2013-08-02 2013-07-08 -25 days
##  4 2013-02-10 2013-03-12 2013-03-17   5 days
##  5 2012-10-25 2012-11-24 2012-11-28   4 days
##  6 2012-01-27 2012-02-26 2012-02-22  -4 days
##  7 2013-08-13 2013-09-12 2013-09-09  -3 days
##  8 2012-12-16 2013-01-15 2013-01-12  -3 days
##  9 2012-05-14 2012-06-13 2012-07-01  18 days
## 10 2013-07-01 2013-07-31 2013-07-26  -5 days
## # ... with 2,456 more rows

Is due year a leap year?

transact %>%
  mutate(
    due_year = year(Due),
    is_leap = leap_year(due_year)
  )

## # A tibble: 2,466 x 5
##       Invoice        Due    Payment due_year is_leap
##        <date>     <date>     <date>    <dbl>   <lgl>
##  1 2013-01-02 2013-02-01 2013-01-15     2013   FALSE
##  2 2013-01-26 2013-02-25 2013-03-03     2013   FALSE
##  3 2013-07-03 2013-08-02 2013-07-08     2013   FALSE
##  4 2013-02-10 2013-03-12 2013-03-17     2013   FALSE
##  5 2012-10-25 2012-11-24 2012-11-28     2012    TRUE
##  6 2012-01-27 2012-02-26 2012-02-22     2012    TRUE
##  7 2013-08-13 2013-09-12 2013-09-09     2013   FALSE
##  8 2012-12-16 2013-01-15 2013-01-12     2013   FALSE
##  9 2012-05-14 2012-06-13 2012-07-01     2012    TRUE
## 10 2013-07-01 2013-07-31 2013-07-26     2013   FALSE
## # ... with 2,456 more rows
…
## [1] TRUE

how many invoices were settled within due date?

transact %>%
  mutate(
    inv_due_interval = interval(Invoice, Due),
    due_next = Due + days(1),
    due_pay_interval = interval(due_next, Payment),
    overlaps = int_overlaps(inv_due_interval, due_pay_interval)
  ) %>%
  select(Invoice, Due, Payment, overlaps)

## # A tibble: 2,466 x 4
##       Invoice        Due    Payment overlaps
##        <date>     <date>     <date>    <lgl>
##  1 2013-01-02 2013-02-01 2013-01-15     TRUE
##  2 2013-01-26 2013-02-25 2013-03-03    FALSE
##  3 2013-07-03 2013-08-02 2013-07-08     TRUE
##  4 2013-02-10 2013-03-12 2013-03-17    FALSE
##  5 2012-10-25 2012-11-24 2012-11-28    FALSE
##  6 2012-01-27 2012-02-26 2012-02-22     TRUE
##  7 2013-08-13 2013-09-12 2013-09-09     TRUE
##  8 2012-12-16 2013-01-15 2013-01-12     TRUE
##  9 2012-05-14 2012-06-13 2012-07-01    FALSE
## 10 2013-07-01 2013-07-31 2013-07-26     TRUE
## # ... with 2,456 more rows

# using int_shift
transact %>%
  mutate(
    inv_due_interval = interval(Invoice, Due),
    due_pay_interval = interval(Due, Payment),  
    due_pay_next = int_shift(due_pay_interval, by = days(1)),
    overlaps = int_overlaps(inv_due_interval, due_pay_next)
  ) %>%
  select(Invoice, Due, Payment, overlaps)

## # A tibble: 2,466 x 4
##       Invoice        Due    Payment overlaps
##        <date>     <date>     <date>    <lgl>
##  1 2013-01-02 2013-02-01 2013-01-15     TRUE
##  2 2013-01-26 2013-02-25 2013-03-03    FALSE
##  3 2013-07-03 2013-08-02 2013-07-08     TRUE
##  4 2013-02-10 2013-03-12 2013-03-17    FALSE
##  5 2012-10-25 2012-11-24 2012-11-28    FALSE
##  6 2012-01-27 2012-02-26 2012-02-22     TRUE
##  7 2013-08-13 2013-09-12 2013-09-09     TRUE
##  8 2012-12-16 2013-01-15 2013-01-12     TRUE
##  9 2012-05-14 2012-06-13 2012-07-01    FALSE
## 10 2013-07-01 2013-07-31 2013-07-26     TRUE
## # ... with 2,456 more rows
…
conference <- as_date('2017-04-15')
conference %within% interval(course_start, course_end)

## [1] TRUE

how many invoices were settled within due date?

transact %>%
  mutate(
    inv_due_interval = interval(Invoice, Due),
    overlaps = Payment %within% inv_due_interval
  ) %>%
  select(Due, Payment, overlaps)

## # A tibble: 2,466 x 3
##           Due    Payment overlaps
##        <date>     <date>    <lgl>
##  1 2013-02-01 2013-01-15     TRUE
##  2 2013-02-25 2013-03-03    FALSE
##  3 2013-08-02 2013-07-08     TRUE
##  4 2013-03-12 2013-03-17    FALSE
##  5 2012-11-24 2012-11-28    FALSE
##  6 2012-02-26 2012-02-22     TRUE
##  7 2013-09-12 2013-09-09     TRUE
##  8 2013-01-15 2013-01-12     TRUE
##  9 2012-06-13 2012-07-01    FALSE
## 10 2013-07-31 2013-07-26     TRUE
## # ... with 2,456 more rows
…
## [1] 2

course_start %>%
  quarter(with_year = TRUE)

## [1] 2017.2

transact %>%
  mutate(
    Quarter = quarter(Due)
  )

## # A tibble: 2,466 x 4
##       Invoice        Due    Payment Quarter
##        <date>     <date>     <date>   <int>
##  1 2013-01-02 2013-02-01 2013-01-15       1
##  2 2013-01-26 2013-02-25 2013-03-03       1
##  3 2013-07-03 2013-08-02 2013-07-08       3
##  4 2013-02-10 2013-03-12 2013-03-17       1
##  5 2012-10-25 2012-11-24 2012-11-28       4
##  6 2012-01-27 2012-02-26 2012-02-22       1
##  7 2013-08-13 2013-09-12 2013-09-09       3
##  8 2012-12-16 2013-01-15 2013-01-12       1
##  9 2012-05-14 2012-06-13 2012-07-01       2
## 10 2013-07-01 2013-07-31 2013-07-26       3
## # ... with 2,456 more rows

transact %>%
  mutate(
    Quarter = quarter(Due, with_year = TRUE)
  )

## # A tibble: 2,466 x 4
##       Invoice        Due    Payment Quarter
##        <date>     <date>     <date>   <dbl>
##  1 2013-01-02 2013-02-01 2013-01-15  2013.1
##  2 2013-01-26 2013-02-25 2013-03-03  2013.1
##  3 2013-07-03 2013-08-02 2013-07-08  2013.3
##  4 2013-02-10 2013-03-12 2013-03-17  2013.1
##  5 2012-10-25 2012-11-24 2012-11-28  2012.4
##  6 2012-01-27 2012-02-26 2012-02-22  2012.1
##  7 2013-08-13 2013-09-12 2013-09-09  2013.3
##  8 2012-12-16 2013-01-15 2013-01-12  2013.1
##  9 2012-05-14 2012-06-13 2012-07-01  2012.2
## 10 2013-07-01 2013-07-31 2013-07-26  2013.3
## # ... with 2,456 more rows
…
